Stat 220 – Iteration II
…
  Day 18

Prof Amanda Luby 

            Carleton College 
 Stat 220 - Winter 2026

Bakeoff data (season 14 only)

bakeoff = read_csv("https://stat220-w26.github.io/data/bakeoff-episodes.csv") |>
  filter(series == 14)

bakeoff

# A tibble: 76 × 7
   series episode baker  signature                  technical showstopper result
    <dbl>   <dbl> <chr>  <chr>                          <dbl> <chr>       <chr> 
 1     14       1 Abbi   Foraged Poppy Seed, Lemon…         3 'Herbert t… Safe  
 2     14       1 Amos   Blood Orange & Dark Choco…         2 'Orca on a… Elimi…
 3     14       1 Cristy 'Lemon Meringue' Vertical…         6 'Raspberry… Safe  
 4     14       1 Dan    Rhubarb & Custard Vertica…         1 'Bruno' Ca… Star …
 5     14       1 Dana   'Salted Caramel Latte' Ve…        12 'My Amazin… Safe  
 6     14       1 Josh   'Tropical' Vertical Layer…         8 'Mum's Hig… Safe  
 7     14       1 Keith  'Dad's Chocolate Orange' …         4 'Maisie' C… Safe  
 8     14       1 Matty  'Tiramisu' Vertical Layer…         7 'Marty the… Safe  
 9     14       1 Nicky  'St. Clements' Vertical L…        10 'Always Be… Safe  
10     14       1 Rowan  Chocolate & Raspberry Ver…         9 'Cosmopoli… Safe  
# ℹ 66 more rows
…
Less fine-grained control

For this class, we’ll learn the basics of both and get practice on homework. For projects, you can use whichever approach makes more sense to you.

Your turn: map with penguins

Using the penguins data, use map to calculate the range of a numeric variable and the table of a factor variable. (It may be helpful to first write a custom function for this output)

Your result should be a list (it will have length 8).

More practice: survivor data

us_castaway_results 

# A tibble: 870 × 7
   castaway_id castaway season_name      season place jury  finalist
   <chr>       <chr>    <chr>             <dbl> <dbl> <lgl> <lgl>   
 1 US0001      Sonja    Survivor: Borneo      1    16 FALSE FALSE   
 2 US0002      B.B.     Survivor: Borneo      1    15 FALSE FALSE   
 3 US0003      Stacey   Survivor: Borneo      1    14 FALSE FALSE   
 4 US0004      Ramona   Survivor: Borneo      1    13 FALSE FALSE   
 5 US0005      Dirk     Survivor: Borneo      1    12 FALSE FALSE   
 6 US0006      Joel     Survivor: Borneo      1    11 FALSE FALSE   
 7 US0007      Gretchen Survivor: Borneo      1    10 FALSE FALSE   
 8 US0008      Greg     Survivor: Borneo      1     9 TRUE  FALSE   
 9 US0009      Jenna    Survivor: Borneo      1     8 TRUE  FALSE   
10 US0010      Gervase  Survivor: Borneo      1     7 TRUE  FALSE   
# ℹ 860 more rows
…
Your turn

Some survivor seasons only had 16 players, while others had 22. This could result in some seasons being slightly under/overrepresented in our sample. Let’s account for this.

Edit this experiment to instead randomly sample one player from each season (this results in 47 players) and then sample 20 players from the 47 random ones.

(Hint: look at the by argument in slice_sample)

unscaled_cancer

Recall the unscaled_cancer dataset from last week:

unscaled_cancer

# A tibble: 569 × 12
        ID Class Radius Texture Perimeter  Area Smoothness Compactness Concavity
     <dbl> <chr>  <dbl>   <dbl>     <dbl> <dbl>      <dbl>       <dbl>     <dbl>
 1  8.42e5 M       18.0    10.4     123.  1001      0.118       0.278     0.300 
 2  8.43e5 M       20.6    17.8     133.  1326      0.0847      0.0786    0.0869
 3  8.43e7 M       19.7    21.2     130   1203      0.110       0.160     0.197 
 4  8.43e7 M       11.4    20.4      77.6  386.     0.142       0.284     0.241 
 5  8.44e7 M       20.3    14.3     135.  1297      0.100       0.133     0.198 
 6  8.44e5 M       12.4    15.7      82.6  477.     0.128       0.17      0.158 
 7  8.44e5 M       18.2    20.0     120.  1040      0.0946      0.109     0.113 
 8  8.45e7 M       13.7    20.8      90.2  578.     0.119       0.164     0.0937
 9  8.45e5 M       13      21.8      87.5  520.     0.127       0.193     0.186 
10  8.45e7 M       12.5    24.0      84.0  476.     0.119       0.240     0.227 
# ℹ 559 more rows
# ℹ 3 more variables: Concave_Points <dbl>, Symmetry <dbl>,
#   Fractal_Dimension <dbl>
…
