tidyr 2: Reshaping Data – Stat 220
…
and here is the code we used last time to tidy the data:

bakeoff_ratings %>%
  pivot_longer(cols = e1:e10, names_to = "episode", values_to = "rating") %>%
  mutate(
    episode = parse_number(episode) 
  )

# A tibble: 80 × 3
   series episode rating
    <dbl>   <dbl>  <dbl>
 1      1       1   2.24
 2      1       2   3   
 3      1       3   3   
 4      1       4   2.6 
 5      1       5   3.03
 6      1       6   2.75
 7      1       7  NA   
 8      1       8  NA   
 9      1       9  NA   
10      1      10  NA   
# ℹ 70 more rows
…
anscombe_tidy %>%
  ggplot(aes(x = x, y = y)) + 
  geom_point() + 
  facet_wrap(~set)

The second way to do this is directly within pivot_longer():

anscombe %>%
  pivot_longer(
    -index,
    names_to = c(".value", "set"),
    names_pattern = "(.)(.)"
  )

# A tibble: 44 × 4
   index set       x     y
   <int> <chr> <dbl> <dbl>
 1     1 1        10  8.04
 2     1 2        10  9.14
 3     1 3        10  7.46
 4     1 4         8  6.58
 5     2 1         8  6.95
 6     2 2         8  8.14
 7     2 3         8  6.77
 8     2 4         8  5.76
 9     3 1        13  7.58
10     3 2        13  8.74
# ℹ 34 more rows
…
