bind_ and _join: Combining Data – Stat 220
…
Warm Up

load(url("https://stat220kurtz.github.io/data/combining-data-examples.Rda"))

Example 1: Star Wars Characters

Dataset 1:

Each row in the dataset corresponds to a Star Wars character

The columns include their name, height, mass, homeworld, species, and the first_film they appeared in

starwars_characters

# A tibble: 87 × 6
   name               height  mass homeworld species first_film
   <chr>               <int> <dbl> <chr>     <chr>   <chr>     
 1 Luke Skywalker        172    77 Tatooine  Human   A New Hope
 2 C-3PO                 167    75 Tatooine  Droid   A New Hope
 3 R2-D2                  96    32 Naboo     Droid   A New Hope
 4 Darth Vader           202   136 Tatooine  Human   A New Hope
 5 Leia Organa           150    49 Alderaan  Human   A New Hope
 6 Owen Lars             178   120 Tatooine  Human   A New Hope
 7 Beru Whitesun Lars    165    75 Tatooine  Human   A New Hope
 8 R5-D4                  97    32 Tatooine  Droid   A New Hope
 9 Biggs Darklighter     183    84 Tatooine  Human   A New Hope
10 Obi-Wan Kenobi        182    77 Stewjon   Human   A New Hope
# ℹ 77 more rows
…
How should these datasets be combined?

Example 3: Survivor castaways

Dataset 1:

This dataset includes information about each castaway’s performance in a given season of Survivor (US seasons)

It includes a castaway ID, first name, season name and number, and the results for that castaway in that season (their overall place, whether they made the jury, and whether they were a finalist)

us_castaway_results

# A tibble: 870 × 7
   castaway_id castaway season_name      season place jury  finalist
   <chr>       <chr>    <chr>             <dbl> <dbl> <lgl> <lgl>   
 1 US0001      Sonja    Survivor: Borneo      1    16 FALSE FALSE   
 2 US0002      B.B.     Survivor: Borneo      1    15 FALSE FALSE   
 3 US0003      Stacey   Survivor: Borneo      1    14 FALSE FALSE   
 4 US0004      Ramona   Survivor: Borneo      1    13 FALSE FALSE   
 5 US0005      Dirk     Survivor: Borneo      1    12 FALSE FALSE   
 6 US0006      Joel     Survivor: Borneo      1    11 FALSE FALSE   
 7 US0007      Gretchen Survivor: Borneo      1    10 FALSE FALSE   
 8 US0008      Greg     Survivor: Borneo      1     9 TRUE  FALSE   
 9 US0009      Jenna    Survivor: Borneo      1     8 TRUE  FALSE   
10 US0010      Gervase  Survivor: Borneo      1     7 TRUE  FALSE   
# ℹ 860 more rows

Dataset 2:

This dataset includes information about each castaway who has appeared on Survivor (including non-US seasons)

It includes a castaway ID, their full name, date of birth, gender and occupation as presented in the show, and their Myers-Briggs personality type.

cast_details

# A tibble: 1,118 × 6
   castaway_id full_name        date_of_birth gender occupation personality_type
   <chr>       <chr>            <date>        <chr>  <chr>      <chr>           
 1 US0014      Rudy Boesch      1928-01-20    Male   Retired N… ISTJ            
 2 US0002      B.B. Andersen    1936-01-18    Male   Real Esta… ESTJ            
 3 US0001      Sonja Christoph… 1937-01-28    Female Musician   ENFP            
 4 US0075      Jake Billingsley 1941-08-21    Male   Land Brok… ISFJ            
 5 US0151      Jim Lynch        1942-01-07    Male   Retired F… ISTJ            
 6 US0474      Joseph Del Campo 1943-07-04    Male   Former FB… ISTJ            
 7 US0304      Jimmy Johnson    1943-07-16    Male   Former NF… ESFJ            
 8 US0047      Kim Johnson      1944-09-18    Female Retired T… ISFJ            
 9 US0128      Scout Cloud Lee  1944-11-08    Female Rancher    INFJ            
10 US0061      Paschal English  1945-03-05    Male   Judge      ISFJ            
# ℹ 1,108 more rows
…
parse_number to format columns as numeric

tidy_ratings2 <- messy_ratings2 %>%
  select(series, contains("7day")) %>%
  pivot_longer(-series, names_to = "episode", values_to = "viewers") %>%
  separate(episode, into = c("episode", "period")) %>%
  mutate(
    episode = parse_number(episode),
    period = parse_number(period)
  )

tidy_ratings2

# A tibble: 80 × 4
   series episode period viewers
    <dbl>   <dbl>  <dbl>   <dbl>
 1      1       1      7    2.24
 2      1       2      7    3   
 3      1       3      7    3   
 4      1       4      7    2.6 
 5      1       5      7    3.03
 6      1       6      7    2.75
 7      1       7      7   NA   
 8      1       8      7   NA   
 9      1       9      7   NA   
10      1      10      7   NA   
# ℹ 70 more rows
…
baker: each baker that competed on that episode

signature: the name of the dessert they made for the signature challenge

technical: the place the baker earned in the technical challenge

showstopper: the name of the dessert they made for the showstopper challenge

result: whether the baker was “Safe” or “Eliminated”

episodes = read_csv("https://stat220kurtz.github.io/data/bakeoff-episodes.csv")
episodes

# A tibble: 1,007 × 7
   series episode baker     signature               technical showstopper result
    <dbl>   <dbl> <chr>     <chr>                       <dbl> <chr>       <chr> 
 1      1       1 Annetha   Light Jamaican Black C…         2 Red, White… Safe  
 2      1       1 David     Chocolate Orange Cake           3 Black Fore… Safe  
 3      1       1 Edd       Caramel Cinnamon and B…         1 <NA>        Safe  
 4      1       1 Jasminder Fresh Mango and Passio…        NA <NA>        Safe  
 5      1       1 Jonathan  Carrot Cake with Lime …         9 Three Tier… Safe  
 6      1       1 Lea       Cranberry and Pistachi…        10 Raspberrie… Elimi…
 7      1       1 Louise    Carrot and Orange Cake         NA Never Fail… Safe  
 8      1       1 Mark      Sticky Marmalade Tea L…        NA Heart-shap… Elimi…
 9      1       1 Miranda   Triple Layered Brownie…         8 Three Tier… Safe  
10      1       1 Ruth      Lemon Drizzle Cakewith…        NA Classic Ch… Safe  
# ℹ 997 more rows
…
