15-sentiment – Stat 220
…
library(tidyverse)
library(tidytext) # functions for doing text analysis
library(wordcloud)

This page contains code from lecture and, at the bottom, the end of class activity

Load the Data

Random (?) sample of 26,882 reviews of coursera courses (Source: Kaggle)

en_coursera_reviews <- read_csv("https://stat220kurtz.github.io/data/en_coursera_sample.csv")
en_coursera_reviews

# A tibble: 26,882 × 5
   CourseId                    Review                      Label cld2  review_id
   <chr>                       <chr>                       <dbl> <chr>     <dbl>
 1 nurture-market-strategies   It would be better if the …     1 en            1
 2 nand2tetris2                Superb course. Great prese…     5 en            2
 3 schedule-projects           Excellent course!               5 en            3
 4 teaching-english-capstone-2 I'd recommend this course …     5 en            4
 5 machine-learning            This course was so effecti…     5 en            5
 6 python-network-data         Words cannot describe how …     5 en            6
 7 clinical-trials             Great course!                   5 en            7
 8 python-genomics             I didn't know anything abo…     3 en            8
 9 strategic-management        Loved everything about thi…     5 en            9
10 script-writing              No significant instruction…     1 en           10
# ℹ 26,872 more rows
…
We can clean the dataset up a bit so that there is a story column that says which of the twelve short stories each line of text belongs to.

sherlock <- sherlock_raw %>%
    mutate(story = ifelse(str_detect(text, "ADVENTURE"),
                          text,
                          NA)) %>%
    fill(story) %>%
    filter(story != "THE ADVENTURES OF SHERLOCK HOLMES") %>%
    mutate(story = factor(story, levels = unique(story)))

sherlock

# A tibble: 6,099 × 3
   gutenberg_id text                                                       story
          <int> <chr>                                                      <fct>
 1         1661 "VII. THE ADVENTURE OF THE BLUE CARBUNCLE"                 VII.…
 2         1661 ""                                                         VII.…
 3         1661 ""                                                         VII.…
 4         1661 "I had called upon my friend Sherlock Holmes upon the sec… VII.…
 5         1661 "after Christmas, with the intention of wishing him the c… VII.…
 6         1661 "the season. He was lounging upon the sofa in a purple dr… VII.…
 7         1661 "pipe-rack within his reach upon the right, and a pile of… VII.…
 8         1661 "morning papers, evidently newly studied, near at hand. B… VII.…
 9         1661 "was a wooden chair, and on the angle of the back hung a … VII.…
10         1661 "disreputable hard-felt hat, much the worse for wear, and… VII.…
# ℹ 6,089 more rows
…
