Lab Quiz 02 Info – Stat 220
…
Next, I grouped by airport name and found the median arrival delay with summarize. I then created a new variable called colorby using mutate that I used to color the points. How do you think I computed this variable? Be as specific as possible.

Given a dataset, describe if it is tidy. If it is not, describe what a tidy format would look like

The dataset below contains the minimum and maximum wind speed recorded at JFK for each day in the dataset. Is this tidy? If not, how would we make it tidy? (You should provide R code AND sketch the tidy dataset)

# A tibble: 728 × 5
    year month   day name           value
   <int> <int> <int> <chr>          <dbl>
 1  2023     1     1 min_wind_speed  0   
 2  2023     1     1 max_wind_speed 15.0 
 3  2023     1     2 min_wind_speed  4.60
 4  2023     1     2 max_wind_speed 11.5 
 5  2023     1     3 min_wind_speed  0   
 6  2023     1     3 max_wind_speed 10.4 
 7  2023     1     4 min_wind_speed  0   
 8  2023     1     4 max_wind_speed  9.21
 9  2023     1     5 min_wind_speed  0   
10  2023     1     5 max_wind_speed 10.4 
# ℹ 718 more rows
…
