Stat 220 – Data Import & Dates/Times
…
read_table()
Space separated

read_tsv()
Tab delimited values

desserts data

Contains results from series 1-8 of The Great British Bake Off

Case defined by series, episode and baker

# A tibble: 549 × 16
   series episode baker     technical result uk_airdate     us_season us_airdate
    <dbl>   <dbl> <chr>     <chr>     <chr>  <chr>              <dbl> <date>    
 1      1       1 Annetha   2nd       IN     17 August 2010        NA NA        
 2      1       1 David     3rd       IN     17 August 2010        NA NA        
 3      1       1 Edd       1st       IN     17 August 2010        NA NA        
 4      1       1 Jasminder N/A       IN     17 August 2010        NA NA        
 5      1       1 Jonathan  9th       IN     17 August 2010        NA NA        
 6      1       1 Louise    N/A       IN     17 August 2010        NA NA        
 7      1       1 Miranda   8th       IN     17 August 2010        NA NA        
 8      1       1 Ruth      N/A       IN     17 August 2010        NA NA        
 9      1       1 Lea       10th      OUT    17 August 2010        NA NA        
10      1       1 Mark      N/A       OUT    17 August 2010        NA NA        
# ℹ 539 more rows
# ℹ 8 more variables: showstopper_chocolate <chr>, showstopper_dessert <chr>,
#   showstopper_fruit <chr>, showstopper_nut <chr>, signature_chocolate <chr>,
#   signature_dessert <chr>, signature_fruit <chr>, signature_nut <chr>
…
Looking for problems

List of potential problems parsing the file

problems(desserts)

# A tibble: 556 × 5
     row   col expected        actual         file 
   <int> <int> <chr>           <chr>          <chr>
 1     2     6 date in ISO8601 17 August 2010 ""   
 2     3     6 date in ISO8601 17 August 2010 ""   
 3     4     6 date in ISO8601 17 August 2010 ""   
 4     5     4 a number        N/A            ""   
 5     5     6 date in ISO8601 17 August 2010 ""   
 6     6     6 date in ISO8601 17 August 2010 ""   
 7     7     4 a number        N/A            ""   
 8     7     6 date in ISO8601 17 August 2010 ""   
 9     8     6 date in ISO8601 17 August 2010 ""   
10     9     4 a number        N/A            ""   
# ℹ 546 more rows

Date formatting woes

# A tibble: 556 × 5
    row   col expected        actual         file 
  <int> <int> <chr>           <chr>          <chr>
1     2     6 date in ISO8601 17 August 2010 ""   
2     3     6 date in ISO8601 17 August 2010 ""   
3     4     6 date in ISO8601 17 August 2010 ""   
4     5     4 a number        N/A            ""   
5     5     6 date in ISO8601 17 August 2010 ""   
# ℹ 551 more rows
…
Looking for problems

List of potential problems parsing the file

# A tibble: 0 × 5
# ℹ 5 variables: row <int>, col <int>, expected <chr>, actual <chr>, file <chr>

desserts

# A tibble: 549 × 16
   series episode baker     technical result uk_airdate us_season us_airdate
    <dbl>   <dbl> <chr>         <dbl> <chr>  <date>         <dbl> <date>    
 1      1       1 Annetha           2 IN     2010-08-17        NA NA        
 2      1       1 David             3 IN     2010-08-17        NA NA        
 3      1       1 Edd               1 IN     2010-08-17        NA NA        
 4      1       1 Jasminder        NA IN     2010-08-17        NA NA        
 5      1       1 Jonathan          9 IN     2010-08-17        NA NA        
 6      1       1 Louise           NA IN     2010-08-17        NA NA        
 7      1       1 Miranda           8 IN     2010-08-17        NA NA        
 8      1       1 Ruth             NA IN     2010-08-17        NA NA        
 9      1       1 Lea              10 OUT    2010-08-17        NA NA        
10      1       1 Mark             NA OUT    2010-08-17        NA NA        
# ℹ 539 more rows
# ℹ 8 more variables: showstopper_chocolate <chr>, showstopper_dessert <chr>,
#   showstopper_fruit <chr>, showstopper_nut <chr>, signature_chocolate <chr>,
#   signature_dessert <chr>, signature_fruit <chr>, signature_nut <chr>
…
