Working with Factors – Stat 220
…
Day 12

  Author

  Affiliation

    Prof Emily Kurtz 

            Carleton College 
 Stat 220 - Spring 2026

Survivor castaways data

# A tibble: 1,417 × 28
   version version_season season full_name      castaway_id castaway   age city 
   <fct>   <chr>           <dbl> <chr>          <chr>       <chr>    <dbl> <chr>
 1 US      US50               50 Angelina Keel… US0554      Angelina    NA <NA> 
 2 US      US50               50 Aubry Bracco   US0477      Aubry       NA <NA> 
 3 US      US50               50 Charlie Davis  US0682      Charlie     NA <NA> 
 4 US      US50               50 Chrissy Hofbe… US0515      Chrissy     NA <NA> 
 5 US      US50               50 Christian Hub… US0550      Christi…    NA <NA> 
 6 US      US50               50 Cirie Fields   US0179      Cirie       NA <NA> 
 7 US      US50               50 Benjamin Wade  US0277      Coach       NA <NA> 
 8 US      US50               50 Colby Donalds… US0031      Colby       NA <NA> 
 9 US      US50               50 Dee Valladares US0666      Dee         NA <NA> 
10 US      US50               50 Emily Flippen  US0668      Emily       NA <NA> 
# ℹ 1,407 more rows
# ℹ 20 more variables: state <chr>, episode <dbl>, day <dbl>, order <dbl>,
#   result <chr>, jury_status <chr>, place <int>, original_tribe <chr>,
#   jury <lgl>, finalist <lgl>, winner <lgl>, acknowledge <lgl>,
#   ack_look <lgl>, ack_speak <lgl>, ack_gesture <lgl>, ack_smile <lgl>,
#   ack_quote <chr>, ack_score <int>, jury1 <dbl>, jury2 <fct>
…
Simple functions for working with factors.

Part of the tidyverse

# loaded with tidyverse
library(forcats)

gss_cat

A sample of data from the General Social Survey, a long-running US survey conducted by NORC at the University of Chicago.

# A tibble: 21,483 × 9
    year marital         age race  rincome        partyid    relig denom tvhours
   <int> <fct>         <int> <fct> <fct>          <fct>      <fct> <fct>   <int>
 1  2000 Never married    26 White $8000 to 9999  Ind,near … Prot… Sout…      12
 2  2000 Divorced         48 White $8000 to 9999  Not str r… Prot… Bapt…      NA
 3  2000 Widowed          67 White Not applicable Independe… Prot… No d…       2
 4  2000 Never married    39 White Not applicable Ind,near … Orth… Not …       4
 5  2000 Divorced         25 White Not applicable Not str d… None  Not …       1
 6  2000 Married          25 White $20000 - 24999 Strong de… Prot… Sout…      NA
 7  2000 Never married    36 White $25000 or more Not str r… Chri… Not …       3
 8  2000 Divorced         44 White $7000 to 7999  Ind,near … Prot… Luth…      NA
 9  2000 Married          44 White $25000 or more Not str d… Prot… Other       0
10  2000 Married          47 White $25000 or more Strong re… Prot… Sout…       3
# ℹ 21,473 more rows
…
