Stat 220 – Text Analysis
…
Course titles

etc.

which are all relatively short and structured. We can extract meaning from them using relatively simple functions and “know what we’re looking for”.

Sometimes, text data is more unstructured

Random (?) sample of 26,882 reviews of coursera courses

en_coursera_reviews <- read_csv("https://stat220kurtz.github.io/data/en_coursera_sample.csv")
en_coursera_reviews

# A tibble: 26,882 × 5
   CourseId                    Review                      Label cld2  review_id
   <chr>                       <chr>                       <dbl> <chr>     <dbl>
 1 nurture-market-strategies   It would be better if the …     1 en            1
 2 nand2tetris2                Superb course. Great prese…     5 en            2
 3 schedule-projects           Excellent course!               5 en            3
 4 teaching-english-capstone-2 I'd recommend this course …     5 en            4
 5 machine-learning            This course was so effecti…     5 en            5
 6 python-network-data         Words cannot describe how …     5 en            6
 7 clinical-trials             Great course!                   5 en            7
 8 python-genomics             I didn't know anything abo…     3 en            8
 9 strategic-management        Loved everything about thi…     5 en            9
10 script-writing              No significant instruction…     1 en           10
# ℹ 26,872 more rows
…
Tokenize

library(tidytext)
en_coursera_reviews |>
  unnest_tokens(output = word, input = Review) |>
  select(CourseId, word)

# A tibble: 666,539 × 2
   CourseId                  word       
   <chr>                     <chr>      
 1 nurture-market-strategies it         
 2 nurture-market-strategies would      
 3 nurture-market-strategies be         
 4 nurture-market-strategies better     
 5 nurture-market-strategies if         
 6 nurture-market-strategies the        
 7 nurture-market-strategies instructors
 8 nurture-market-strategies cared      
 9 nurture-market-strategies to         
10 nurture-market-strategies respond    
# ℹ 666,529 more rows
…
Remove stopwords

en_coursera_reviews |>
  unnest_tokens(output = word, input = Review) |>
  anti_join(get_stopwords(source = "stopwords-iso"), by = "word") |>
  select(CourseId, word)

# A tibble: 222,601 × 2
   CourseId                  word        
   <chr>                     <chr>       
 1 nurture-market-strategies instructors 
 2 nurture-market-strategies cared       
 3 nurture-market-strategies respond     
 4 nurture-market-strategies queries     
 5 nand2tetris2              superb      
 6 nand2tetris2              presentation
 7 nand2tetris2              material    
 8 nand2tetris2              projects    
 9 nand2tetris2              challenging 
10 nand2tetris2              fun         
# ℹ 222,591 more rows

Filter to include only data science courses

en_coursera_reviews |>
  unnest_tokens(output = word, input = Review) |>
  anti_join(get_stopwords(source = "stopwords-iso"), by = "word") |>
  filter(str_detect(CourseId, "data-science")) |> 
  select(CourseId, word)

# A tibble: 1,419 × 2
   CourseId                        word        
   <chr>                           <chr>       
 1 data-science-course             helpful     
 2 data-science-course             paced       
 3 executive-data-science-capstone quality     
 4 executive-data-science-capstone fun         
 5 data-science-course             level       
 6 data-science-course             overview    
 7 data-science-course             technical   
 8 data-science-course             introduction
 9 data-science-course             essential   
10 data-science-course             key         
# ℹ 1,409 more rows
…
\[\text{tf-df(t, d)} = \text{tf(t, d)} \times \text{idf(t, D)}\]

highest tf-idf’s are used a lot within a review, and rarely in other reviews

en_coursera_reviews |>
  unnest_tokens(word, Review) |>
  count(review_id, word) |>
  bind_tf_idf(word, review_id, n) |>
  group_by(word) |>
  mutate(total_n = sum(n)) |>
  ungroup() |>
  arrange(desc(tf_idf)) 

# A tibble: 547,541 × 7
   review_id word             n    tf   idf tf_idf total_n
       <dbl> <chr>        <int> <dbl> <dbl>  <dbl>   <int>
 1      3970 excellen         1     1 10.2   10.2        1
 2      5501 estupendo        1     1 10.2   10.2        1
 3     25198 excellant        1     1  9.51   9.51       2
 4     10057 impeccable       1     1  9.10   9.10       3
 5     13780 satisfactory     1     1  8.59   8.59       5
 6     26553 magnificent      1     1  8.12   8.12       8
 7      7751 excellence       1     1  7.90   7.90      10
 8     10971 excellence       1     1  7.90   7.90      10
 9     12755 recomendable     1     1  7.90   7.90      10
10     13077 excellence       1     1  7.90   7.90      10
# ℹ 547,531 more rows
…
