Stat 220 – Iteration
…
scaled_cancer

# A tibble: 569 × 13
        ID Class Radius Texture Perimeter Area  Smoothness Compactness Concavity
     <dbl> <chr> <lgl>  <lgl>   <lgl>     <lgl> <lgl>      <lgl>       <lgl>    
 1  8.42e5 M     NA     NA      NA        NA    NA         NA          NA       
 2  8.43e5 M     NA     NA      NA        NA    NA         NA          NA       
 3  8.43e7 M     NA     NA      NA        NA    NA         NA          NA       
 4  8.43e7 M     NA     NA      NA        NA    NA         NA          NA       
 5  8.44e7 M     NA     NA      NA        NA    NA         NA          NA       
 6  8.44e5 M     NA     NA      NA        NA    NA         NA          NA       
 7  8.44e5 M     NA     NA      NA        NA    NA         NA          NA       
 8  8.45e7 M     NA     NA      NA        NA    NA         NA          NA       
 9  8.45e5 M     NA     NA      NA        NA    NA         NA          NA       
10  8.45e7 M     NA     NA      NA        NA    NA         NA          NA       
# ℹ 559 more rows
# ℹ 4 more variables: Concave_Points <lgl>, Symmetry <lgl>,
#   Fractal_Dimension <dbl>, Fractal_dimension <lgl>

for loops

(2) Determine an index over which to iterate

Columns 3 to 12 are numeric, our index is 3:12

# A tibble: 569 × 13
        ID Class Radius Texture Perimeter Area  Smoothness Compactness Concavity
     <dbl> <chr> <lgl>  <lgl>   <lgl>     <lgl> <lgl>      <lgl>       <lgl>    
 1  8.42e5 M     NA     NA      NA        NA    NA         NA          NA       
 2  8.43e5 M     NA     NA      NA        NA    NA         NA          NA       
 3  8.43e7 M     NA     NA      NA        NA    NA         NA          NA       
 4  8.43e7 M     NA     NA      NA        NA    NA         NA          NA       
 5  8.44e7 M     NA     NA      NA        NA    NA         NA          NA       
 6  8.44e5 M     NA     NA      NA        NA    NA         NA          NA       
 7  8.44e5 M     NA     NA      NA        NA    NA         NA          NA       
 8  8.45e7 M     NA     NA      NA        NA    NA         NA          NA       
 9  8.45e5 M     NA     NA      NA        NA    NA         NA          NA       
10  8.45e7 M     NA     NA      NA        NA    NA         NA          NA       
# ℹ 559 more rows
# ℹ 4 more variables: Concave_Points <lgl>, Symmetry <lgl>,
#   Fractal_Dimension <dbl>, Fractal_dimension <lgl>

for loops

(3) Iterate through the index, standardize and save results 
i <- 3

for (i in 3:12){
  scaled_cancer[, i] <- standardize(unscaled_cancer[[i]])
}

# A tibble: 569 × 13
        ID Class Radius Texture Perimeter Area  Smoothness Compactness Concavity
     <dbl> <chr>  <dbl> <lgl>   <lgl>     <lgl> <lgl>      <lgl>       <lgl>    
1   842302 M      1.10  NA      NA        NA    NA         NA          NA       
2   842517 M      1.83  NA      NA        NA    NA         NA          NA       
3 84300903 M      1.58  NA      NA        NA    NA         NA          NA       
4 84348301 M     -0.768 NA      NA        NA    NA         NA          NA       
5 84358402 M      1.75  NA      NA        NA    NA         NA          NA       
# ℹ 564 more rows
# ℹ 4 more variables: Concave_Points <lgl>, Symmetry <lgl>,
#   Fractal_Dimension <dbl>, Fractal_dimension <lgl>

for loops

(3) Iterate through the index, standardize and save results 
i <- 4

for (i in 3:12){
  scaled_cancer[, i] <- standardize(unscaled_cancer[[i]])
}

# A tibble: 569 × 13
        ID Class Radius Texture Perimeter Area  Smoothness Compactness Concavity
     <dbl> <chr>  <dbl>   <dbl> <lgl>     <lgl> <lgl>      <lgl>       <lgl>    
1   842302 M      1.10   -2.07  NA        NA    NA         NA          NA       
2   842517 M      1.83   -0.353 NA        NA    NA         NA          NA       
3 84300903 M      1.58    0.456 NA        NA    NA         NA          NA       
4 84348301 M     -0.768   0.254 NA        NA    NA         NA          NA       
5 84358402 M      1.75   -1.15  NA        NA    NA         NA          NA       
# ℹ 564 more rows
# ℹ 4 more variables: Concave_Points <lgl>, Symmetry <lgl>,
#   Fractal_Dimension <dbl>, Fractal_dimension <lgl>

for loops

(3) Iterate through the index, standardize and save results 
i <- 5

for (i in 3:12){
  scaled_cancer[, i] <- standardize(unscaled_cancer[[i]])
}

# A tibble: 569 × 13
        ID Class Radius Texture Perimeter Area  Smoothness Compactness Concavity
     <dbl> <chr>  <dbl>   <dbl>     <dbl> <lgl> <lgl>      <lgl>       <lgl>    
1   842302 M      1.10   -2.07      1.27  NA    NA         NA          NA       
2   842517 M      1.83   -0.353     1.68  NA    NA         NA          NA       
3 84300903 M      1.58    0.456     1.57  NA    NA         NA          NA       
4 84348301 M     -0.768   0.254    -0.592 NA    NA         NA          NA       
5 84358402 M      1.75   -1.15      1.78  NA    NA         NA          NA       
# ℹ 564 more rows
# ℹ 4 more variables: Concave_Points <lgl>, Symmetry <lgl>,
#   Fractal_Dimension <dbl>, Fractal_dimension <lgl>

for loops

(3) Iterate through the index, standardize and save results 
i <- 6

for (i in 3:12){
  scaled_cancer[, i] <- standardize(unscaled_cancer[[i]])
}

# A tibble: 569 × 13
       ID Class Radius Texture Perimeter   Area Smoothness Compactness Concavity
    <dbl> <chr>  <dbl>   <dbl>     <dbl>  <dbl> <lgl>      <lgl>       <lgl>    
1  8.42e5 M      1.10   -2.07      1.27   0.984 NA         NA          NA       
2  8.43e5 M      1.83   -0.353     1.68   1.91  NA         NA          NA       
3  8.43e7 M      1.58    0.456     1.57   1.56  NA         NA          NA       
4  8.43e7 M     -0.768   0.254    -0.592 -0.764 NA         NA          NA       
5  8.44e7 M      1.75   -1.15      1.78   1.82  NA         NA          NA       
# ℹ 564 more rows
# ℹ 4 more variables: Concave_Points <lgl>, Symmetry <lgl>,
#   Fractal_Dimension <dbl>, Fractal_dimension <lgl>
…
# Iterate over numeric columns and save
for (i in 3:12){
  scaled_cancer[, i] <- standardize(unscaled_cancer[[i]])
}

scaled_cancer

# A tibble: 569 × 13
       ID Class Radius Texture Perimeter   Area Smoothness Compactness Concavity
    <dbl> <chr>  <dbl>   <dbl>     <dbl>  <dbl>      <dbl>       <dbl>     <dbl>
 1 8.42e5 M      1.10   -2.07     1.27    0.984      1.57       3.28      2.65  
 2 8.43e5 M      1.83   -0.353    1.68    1.91      -0.826     -0.487    -0.0238
 3 8.43e7 M      1.58    0.456    1.57    1.56       0.941      1.05      1.36  
 4 8.43e7 M     -0.768   0.254   -0.592  -0.764      3.28       3.40      1.91  
 5 8.44e7 M      1.75   -1.15     1.78    1.82       0.280      0.539     1.37  
 6 8.44e5 M     -0.476  -0.835   -0.387  -0.505      2.24       1.24      0.866 
 7 8.44e5 M      1.17    0.161    1.14    1.09      -0.123      0.0882    0.300 
 8 8.45e7 M     -0.118   0.358   -0.0728 -0.219      1.60       1.14      0.0610
 9 8.45e5 M     -0.320   0.588   -0.184  -0.384      2.20       1.68      1.22  
10 8.45e7 M     -0.473   1.10    -0.329  -0.509      1.58       2.56      1.74  
# ℹ 559 more rows
# ℹ 4 more variables: Concave_Points <dbl>, Symmetry <dbl>,
#   Fractal_Dimension <dbl>, Fractal_dimension <lgl>
…
# A tibble: 1 × 20
  Radius_mean Radius_sd Texture_mean Texture_sd Perimeter_mean Perimeter_sd
        <dbl>     <dbl>        <dbl>      <dbl>          <dbl>        <dbl>
1        14.1      3.52         19.3       4.30           92.0         24.3
# ℹ 14 more variables: Area_mean <dbl>, Area_sd <dbl>, Smoothness_mean <dbl>,
#   Smoothness_sd <dbl>, Compactness_mean <dbl>, Compactness_sd <dbl>,
#   Concavity_mean <dbl>, Concavity_sd <dbl>, Concave_Points_mean <dbl>,
#   Concave_Points_sd <dbl>, Symmetry_mean <dbl>, Symmetry_sd <dbl>,
#   Fractal_Dimension_mean <dbl>, Fractal_Dimension_sd <dbl>

unscaled_cancer |>
  mutate(across(Radius:Fractal_Dimension, standardize))

# A tibble: 569 × 12
       ID Class Radius Texture Perimeter   Area Smoothness Compactness Concavity
    <dbl> <chr>  <dbl>   <dbl>     <dbl>  <dbl>      <dbl>       <dbl>     <dbl>
 1 8.42e5 M      1.10   -2.07     1.27    0.984      1.57       3.28      2.65  
 2 8.43e5 M      1.83   -0.353    1.68    1.91      -0.826     -0.487    -0.0238
 3 8.43e7 M      1.58    0.456    1.57    1.56       0.941      1.05      1.36  
 4 8.43e7 M     -0.768   0.254   -0.592  -0.764      3.28       3.40      1.91  
 5 8.44e7 M      1.75   -1.15     1.78    1.82       0.280      0.539     1.37  
 6 8.44e5 M     -0.476  -0.835   -0.387  -0.505      2.24       1.24      0.866 
 7 8.44e5 M      1.17    0.161    1.14    1.09      -0.123      0.0882    0.300 
 8 8.45e7 M     -0.118   0.358   -0.0728 -0.219      1.60       1.14      0.0610
 9 8.45e5 M     -0.320   0.588   -0.184  -0.384      2.20       1.68      1.22  
10 8.45e7 M     -0.473   1.10    -0.329  -0.509      1.58       2.56      1.74  
# ℹ 559 more rows
# ℹ 3 more variables: Concave_Points <dbl>, Symmetry <dbl>,
#   Fractal_Dimension <dbl>
…
where(is.numeric) selects all numeric columns.

where(is.character) selects all string columns.

where(is.Date) selects all date columns.

where(is.logical) selects all logical columns.

across() on unscaled cancer data

unscaled_cancer %>%
  mutate(across(where(is.numeric), standardize))

# A tibble: 569 × 12
       ID Class Radius Texture Perimeter   Area Smoothness Compactness Concavity
    <dbl> <chr>  <dbl>   <dbl>     <dbl>  <dbl>      <dbl>       <dbl>     <dbl>
 1 -0.236 M      1.10   -2.07     1.27    0.984      1.57       3.28      2.65  
 2 -0.236 M      1.83   -0.353    1.68    1.91      -0.826     -0.487    -0.0238
 3  0.431 M      1.58    0.456    1.57    1.56       0.941      1.05      1.36  
 4  0.432 M     -0.768   0.254   -0.592  -0.764      3.28       3.40      1.91  
 5  0.432 M      1.75   -1.15     1.78    1.82       0.280      0.539     1.37  
 6 -0.236 M     -0.476  -0.835   -0.387  -0.505      2.24       1.24      0.866 
 7 -0.236 M      1.17    0.161    1.14    1.09      -0.123      0.0882    0.300 
 8  0.433 M     -0.118   0.358   -0.0728 -0.219      1.60       1.14      0.0610
 9 -0.236 M     -0.320   0.588   -0.184  -0.384      2.20       1.68      1.22  
10  0.433 M     -0.473   1.10    -0.329  -0.509      1.58       2.56      1.74  
# ℹ 559 more rows
# ℹ 3 more variables: Concave_Points <dbl>, Symmetry <dbl>,
#   Fractal_Dimension <dbl>
…
