Stat 220 – Data Wrangling: Code Style
…
  Day 09

Prof Emily Kurtz 

            Carleton College 
 Stat 220 - Spring 2026

Which is easier to read?

Option A
Option B

group_by(colleges,region) %>% mutate(z_cost=(cost - mean(cost, na.rm=TRUE)) / sd(cost,na.rm = TRUE)) %>% ungroup() 

# A tibble: 187 × 14
   unitid school  type  city  state region admission_rate   act undergrads  cost
    <dbl> <chr>   <chr> <chr> <chr> <chr>           <dbl> <dbl>      <dbl> <dbl>
 1 228343 Southw… priv… Geor… TX    South…          0.490    26       1507 55886
 2 177719 Barnes… priv… Sain… MO    Plains         NA        NA        569    NA
 3 367884 Hodges… priv… Fort… FL    South…          0.612    NA        832 27425
 4 149781 Wheato… priv… Whea… IL    Great…          0.848    29       2358 49214
 5 135364 Luther… priv… Lith… GA    South…          0.5      NA        235    NA
 6 212601 Gannon… priv… Erie  PA    Mid E…          0.755    23       2866 44896
 7 133979 Florid… priv… Miam… FL    South…          0.400    NA       1049 27460
 8 117140 Univer… priv… La V… CA    Far W…          0.548    22       4516 58014
 9 152567 Trine … priv… Ango… IN    Great…          0.816    25       2120 46440
10 237057 Whitma… priv… Wall… WA    Far W…          0.559    31       1545 68082
# ℹ 177 more rows
# ℹ 4 more variables: grad_rate <dbl>, fy_retention <dbl>, fedloan <dbl>,
#   z_cost <dbl>

colleges %>%
  group_by(region) %>%
  mutate(z_cost = (cost - mean(cost, na.rm = TRUE)) / sd(cost, na.rm = TRUE)) %>%
  ungroup() 

# A tibble: 187 × 14
   unitid school  type  city  state region admission_rate   act undergrads  cost
    <dbl> <chr>   <chr> <chr> <chr> <chr>           <dbl> <dbl>      <dbl> <dbl>
 1 228343 Southw… priv… Geor… TX    South…          0.490    26       1507 55886
 2 177719 Barnes… priv… Sain… MO    Plains         NA        NA        569    NA
 3 367884 Hodges… priv… Fort… FL    South…          0.612    NA        832 27425
 4 149781 Wheato… priv… Whea… IL    Great…          0.848    29       2358 49214
 5 135364 Luther… priv… Lith… GA    South…          0.5      NA        235    NA
 6 212601 Gannon… priv… Erie  PA    Mid E…          0.755    23       2866 44896
 7 133979 Florid… priv… Miam… FL    South…          0.400    NA       1049 27460
 8 117140 Univer… priv… La V… CA    Far W…          0.548    22       4516 58014
 9 152567 Trine … priv… Ango… IN    Great…          0.816    25       2120 46440
10 237057 Whitma… priv… Wall… WA    Far W…          0.559    31       1545 68082
# ℹ 177 more rows
# ℹ 4 more variables: grad_rate <dbl>, fy_retention <dbl>, fedloan <dbl>,
#   z_cost <dbl>
…
