Stat 220 – APIs
…
Actually getting the data in the form we can work with

hmong_state_tbl <- hmong_state_response %>%
  resp_body_json(simplifyVector = TRUE) %>%
  janitor::row_to_names(1) %>%
  as_tibble()

hmong_state_tbl

# A tibble: 52 × 4
   NAME      B02015_009E B02015_009M state
   <chr>     <chr>       <chr>       <chr>
 1 Illinois  655         511         17   
 2 Georgia   3162        1336        13   
 3 Idaho     <NA>        <NA>        16   
 4 Hawaii    56          92          15   
 5 Indiana   1344        1198        18   
 6 Iowa      685         705         19   
 7 Kansas    2189        1177        20   
 8 Kentucky  530         503         21   
 9 Louisiana 0           224         22   
10 Maine     <NA>        <NA>        23   
# ℹ 42 more rows
…
