Portfolio Project 1 – Stat 220
…
For more information about the variables in the dataset, see the TidyTuesday repo page.

2. Olympics

olympics <- readr::read_csv('https://raw.githubusercontent.com/rfordatascience/tidytuesday/refs/heads/main/data/2026/2026-02-10/schedule.csv')
olympics

# A tibble: 1,866 × 21
   date       discipline_code discipline_name event_code       event_description
   <date>     <chr>           <chr>           <chr>            <chr>            
 1 2026-02-04 ALP             Alpine Skiing   ALPMDH---------… Men's Downhill 1…
 2 2026-02-04 ALP             Alpine Skiing   ALPMDH---------… Men's Downhill 2…
 3 2026-02-04 ALP             Alpine Skiing   ALPWDH---------… Women's Downhill…
 4 2026-02-04 CUR             Curling         CURXTEAM2------… Mixed Doubles Ro…
 5 2026-02-04 CUR             Curling         CURXTEAM2------… Mixed Doubles Ro…
 6 2026-02-04 CUR             Curling         CURXTEAM2------… Mixed Doubles Ro…
 7 2026-02-04 CUR             Curling         CURXTEAM2------… Mixed Doubles Ro…
 8 2026-02-04 CUR             Curling         CURXTEAM2------… Mixed Doubles Ro…
 9 2026-02-04 CUR             Curling         CURXTEAM2------… Mixed Doubles Ro…
10 2026-02-04 CUR             Curling         CURXTEAM2------… Mixed Doubles Ro…
# ℹ 1,856 more rows
# ℹ 16 more variables: start_datetime_local <dttm>, end_datetime_local <dttm>,
#   start_datetime_utc <dttm>, end_datetime_utc <dttm>, is_medal_event <lgl>,
#   is_training <lgl>, venue_code <chr>, venue_name <chr>, venue_slug <chr>,
#   location_name <chr>, location_code <chr>, session_code <chr>,
#   estimated_start <lgl>, day_of_week <chr>, start_time <time>,
#   end_time <time>

For more information about the variables in the dataset, see the TidyTuesday repo page.

3. NSF grant terminations

nsf_terminations <- readr::read_csv('https://raw.githubusercontent.com/rfordatascience/tidytuesday/main/data/2025/2025-05-06/nsf_terminations.csv')
nsf_terminations

# A tibble: 1,041 × 21
   grant_number project_title termination_letter_d…¹ org_name org_city org_state
          <dbl> <chr>         <date>                 <chr>    <chr>    <chr>    
 1      2135329 Collaborativ… 2025-04-25             Univers… ALBUQUE… NM       
 2      2342099 MyTurn: An A… 2025-04-25             Univers… CHICAGO  IL       
 3      2201103 Collaborativ… 2025-04-25             America… WASHING… DC       
 4      2215382 Engaging Rur… 2025-04-25             TERC Inc CAMBRID… MA       
 5      2405633 Design Effec… 2025-04-25             San Fra… SAN FRA… CA       
 6      2317714 Collaborativ… 2025-04-25             Occiden… LOS ANG… CA       
 7      2046081 CAREER: SBP:… 2025-04-25             Univers… SANTA B… CA       
 8      2348705 Rural Commun… 2025-04-25             Hamilto… CLINTON  NY       
 9      2404708 Postdoctoral… 2025-04-25             New Yor… New York CA       
10      2215138 BRITE Girls … 2025-04-25             Florida… TALLAHA… FL       
# ℹ 1,031 more rows
# ℹ abbreviated name: ¹​termination_letter_date
# ℹ 15 more variables: org_district <chr>, usaspending_obligated <dbl>,
#   award_type <chr>, directorate_abbrev <chr>, directorate <chr>,
#   division <chr>, nsf_program_name <chr>, nsf_url <chr>,
#   usaspending_url <chr>, nsf_startdate <date>, nsf_expected_end_date <date>,
#   org_zip <chr>, org_uei <chr>, abstract <chr>, in_cruz_list <lgl>
…
For more information about the variables in the dataset, see the TidyTuesday repo page.

5. Dungeons and Dragons Monsters

dnd <- readr::read_csv('https://raw.githubusercontent.com/rfordatascience/tidytuesday/refs/heads/main/data/2025/2025-05-27/monsters.csv')

dnd

# A tibble: 330 × 33
   name   category    cr size  type  descriptive_tags alignment    ac initiative
   <chr>  <chr>    <dbl> <chr> <chr> <chr>            <chr>     <dbl>      <dbl>
 1 Abole… Aboleth  10    Large Aber… <NA>             Lawful E…    17          7
 2 Air E… Air Ele…  5    Large Elem… <NA>             Neutral      15          5
 3 Anima… Animate…  1    Medi… Cons… <NA>             Unaligned    18          2
 4 Anima… Animate…  0.25 Small Cons… <NA>             Unaligned    17          4
 5 Anima… Animate…  2    Large Cons… <NA>             Unaligned    12          4
 6 Ankheg Ankheg    2    Large Mons… <NA>             Unaligned    14          0
 7 Assas… Assassin  8    Medi… Huma… <NA>             Neutral      16         10
 8 Awake… Awakene…  0    Small Plant <NA>             Neutral       9         -1
 9 Awake… Awakene…  2    Huge  Plant <NA>             Neutral      13         -2
10 Axe B… Axe Beak  0.25 Large Mons… <NA>             Unaligned    11          1
# ℹ 320 more rows
# ℹ 24 more variables: hp <chr>, hp_number <dbl>, speed <chr>,
#   speed_base_number <dbl>, str <dbl>, dex <dbl>, con <dbl>, int <dbl>,
#   wis <dbl>, cha <dbl>, str_save <dbl>, dex_save <dbl>, con_save <dbl>,
#   int_save <dbl>, wis_save <dbl>, cha_save <dbl>, skills <chr>,
#   resistances <chr>, vulnerabilities <chr>, immunities <chr>, gear <chr>,
#   senses <chr>, languages <chr>, full_text <chr>
…
