Stat 220 – Sentiment Analysis
…
Today

Sentiment analysis

Text analysis loose ends

Data for today

Random (?) sample of 26,882 reviews of coursera courses

en_coursera_reviews <- read_csv("https://stat220kurtz.github.io/data/en_coursera_sample.csv")
en_coursera_reviews

# A tibble: 26,882 × 5
   CourseId                    Review                      Label cld2  review_id
   <chr>                       <chr>                       <dbl> <chr>     <dbl>
 1 nurture-market-strategies   It would be better if the …     1 en            1
 2 nand2tetris2                Superb course. Great prese…     5 en            2
 3 schedule-projects           Excellent course!               5 en            3
 4 teaching-english-capstone-2 I'd recommend this course …     5 en            4
 5 machine-learning            This course was so effecti…     5 en            5
 6 python-network-data         Words cannot describe how …     5 en            6
 7 clinical-trials             Great course!                   5 en            7
 8 python-genomics             I didn't know anything abo…     3 en            8
 9 strategic-management        Loved everything about thi…     5 en            9
10 script-writing              No significant instruction…     1 en           10
# ℹ 26,872 more rows
…
en_coursera_reviews 

# A tibble: 26,882 × 5
   CourseId                    Review                      Label cld2  review_id
   <chr>                       <chr>                       <dbl> <chr>     <dbl>
 1 nurture-market-strategies   It would be better if the …     1 en            1
 2 nand2tetris2                Superb course. Great prese…     5 en            2
 3 schedule-projects           Excellent course!               5 en            3
 4 teaching-english-capstone-2 I'd recommend this course …     5 en            4
 5 machine-learning            This course was so effecti…     5 en            5
 6 python-network-data         Words cannot describe how …     5 en            6
 7 clinical-trials             Great course!                   5 en            7
 8 python-genomics             I didn't know anything abo…     3 en            8
 9 strategic-management        Loved everything about thi…     5 en            9
10 script-writing              No significant instruction…     1 en           10
# ℹ 26,872 more rows
…
joining the sentiment data

bing_sentiments = get_sentiments("bing")
en_coursera_reviews %>%
  unnest_tokens(word, Review) %>% 
  inner_join(bing_sentiments, by = "word") %>%
  select(-c(CourseId, cld2))

# A tibble: 69,063 × 4
   Label review_id word        sentiment
   <dbl>     <dbl> <chr>       <chr>    
 1     1         1 better      positive 
 2     5         2 superb      positive 
 3     5         2 great       positive 
 4     5         2 challenging negative 
 5     5         2 fun         positive 
 6     5         2 recommend   positive 
 7     5         3 excellent   positive 
 8     5         4 recommend   positive 
 9     5         4 enjoyed     positive 
10     5         4 great       positive 
# ℹ 69,053 more rows

group_by review ID, summarize overall sentiment

bing_review_scores <- en_coursera_reviews %>%
  unnest_tokens(word, Review) %>% 
  inner_join(bing_sentiments, by = "word") %>%
  group_by(review_id) %>%
  summarize(
    sum = (sum(sentiment == "positive") - sum(sentiment == "negative"))
  )

bing_review_scores

# A tibble: 25,384 × 2
   review_id   sum
       <dbl> <int>
 1         1     1
 2         2     3
 3         3     1
 4         4     3
 5         5     5
 6         6     1
 7         7     1
 8         8     2
 9         9     5
10        10     0
# ℹ 25,374 more rows
…
