Stat 220 – Data Wrangling: Groups & Tidy Data
…
The median dep_delay. How does it compare to the overall median?

You should do both (1) and (2) in a single pipeline

group_by()

Groups cases by common values of one or more columns

colleges
colleges with group_by

colleges

# A tibble: 187 × 13
  unitid school   type  city  state region admission_rate   act undergrads  cost
   <dbl> <chr>    <chr> <chr> <chr> <chr>           <dbl> <dbl>      <dbl> <dbl>
1 228343 Southwe… priv… Geor… TX    South…          0.490    26       1507 55886
2 177719 Barnes-… priv… Sain… MO    Plains         NA        NA        569    NA
3 367884 Hodges … priv… Fort… FL    South…          0.612    NA        832 27425
# ℹ 184 more rows
# ℹ 3 more variables: grad_rate <dbl>, fy_retention <dbl>, fedloan <dbl>

colleges %>% 
  group_by(state)

# A tibble: 187 × 13
# Groups:   state [44]
  unitid school   type  city  state region admission_rate   act undergrads  cost
   <dbl> <chr>    <chr> <chr> <chr> <chr>           <dbl> <dbl>      <dbl> <dbl>
1 228343 Southwe… priv… Geor… TX    South…          0.490    26       1507 55886
2 177719 Barnes-… priv… Sain… MO    Plains         NA        NA        569    NA
3 367884 Hodges … priv… Fort… FL    South…          0.612    NA        832 27425
# ℹ 184 more rows
# ℹ 3 more variables: grad_rate <dbl>, fy_retention <dbl>, fedloan <dbl>
…
Statistics by group: group_by + summarize

Summary statistics by state

colleges %>%
  group_by(state) %>%
  summarize(
    n_schools = n(),
    avg_cost = mean(cost, na.rm = TRUE),
    min_size = min(undergrads, na.rm = TRUE),
    max_size = max(undergrads, na.rm = TRUE)
  )

# A tibble: 44 × 5
   state n_schools avg_cost min_size max_size
   <chr>     <int>    <dbl>    <dbl>    <dbl>
 1 AL            4   22242.      245     7785
 2 AR            3   43816.      512     1447
 3 AZ            2   33388.      803    33715
 4 CA            9   42807.       43    23337
 5 CO            2   45574      5755     8448
 6 CT            3   29895.      174     4425
 7 FL            5   34747.       39     2401
 8 GA            6   27961       235     9742
 9 HI            1   36765      1558     1558
10 IA            1     NaN       339      339
# ℹ 34 more rows

Aside: code commenting

In R, you can use # for adding comments to your code. Any text that follows the # will be printed as-is and won’t be run as code. This is useful for leaving comments in your code and for temporarily disabling certain lines of code for debugging.

colleges %>%
  group_by(state) %>%
  summarize(
    n_schools = n(),                               # This is a reminder to me
    # avg_cost = mean(cost, na.rm = TRUE),         # This line isn't run
    min_size = min(undergrads, na.rm = TRUE),
    max_size = max(undergrads, na.rm = TRUE)
  )

# A tibble: 44 × 4
   state n_schools min_size max_size
   <chr>     <int>    <dbl>    <dbl>
 1 AL            4      245     7785
 2 AR            3      512     1447
 3 AZ            2      803    33715
 4 CA            9       43    23337
 5 CO            2     5755     8448
 6 CT            3      174     4425
 7 FL            5       39     2401
 8 GA            6      235     9742
 9 HI            1     1558     1558
10 IA            1      339      339
# ℹ 34 more rows
…
Use group_by(), summarize(), and slice_max() to display the five dest airports with the most flights from NYC airports in 2023. Your display should include the median flight delay for these airports along with the number of flights to each airport.

Calculating counts

count() can be used as a short cut to group_by() + summarize() if you are only calculating counts

group_by()
count()

colleges %>% 
  group_by(state) %>%
  summarize(n = n())

# A tibble: 44 × 2
   state     n
   <chr> <int>
 1 AL        4
 2 AR        3
 3 AZ        2
 4 CA        9
 5 CO        2
 6 CT        3
 7 FL        5
 8 GA        6
 9 HI        1
10 IA        1
# ℹ 34 more rows

colleges %>% count(state)

# A tibble: 44 × 2
   state     n
   <chr> <int>
 1 AL        4
 2 AR        3
 3 AZ        2
 4 CA        9
 5 CO        2
 6 CT        3
 7 FL        5
 8 GA        6
 9 HI        1
10 IA        1
# ℹ 34 more rows

Calculations by group: group_by + mutate

Calculate z-scores within regions

colleges %>%
  group_by(region) %>%
  mutate(z_cost = (cost - mean(cost, na.rm = TRUE)) / sd(cost, na.rm = TRUE)) %>%
  relocate(unitid:region, z_cost, everything())

# A tibble: 187 × 14
# Groups:   region [10]
   unitid school type  city  state region z_cost admission_rate   act undergrads
    <dbl> <chr>  <chr> <chr> <chr> <chr>   <dbl>          <dbl> <dbl>      <dbl>
 1 228343 South… priv… Geor… TX    South…  1.51           0.490    26       1507
 2 177719 Barne… priv… Sain… MO    Plains NA             NA        NA        569
 3 367884 Hodge… priv… Fort… FL    South… -0.467          0.612    NA        832
 4 149781 Wheat… priv… Whea… IL    Great…  1.06           0.848    29       2358
 5 135364 Luthe… priv… Lith… GA    South… NA              0.5      NA        235
 6 212601 Ganno… priv… Erie  PA    Mid E…  0.261          0.755    23       2866
 7 133979 Flori… priv… Miam… FL    South… -0.465          0.400    NA       1049
 8 117140 Unive… priv… La V… CA    Far W…  1.14           0.548    22       4516
 9 152567 Trine… priv… Ango… IN    Great…  0.849          0.816    25       2120
10 237057 Whitm… priv… Wall… WA    Far W…  1.79           0.559    31       1545
# ℹ 177 more rows
# ℹ 4 more variables: cost <dbl>, grad_rate <dbl>, fy_retention <dbl>,
#   fedloan <dbl>
…
# A tibble: 8 × 11
  series    e1    e2    e3    e4    e5    e6    e7    e8    e9   e10
   <dbl> <dbl> <dbl> <dbl> <dbl> <dbl> <dbl> <dbl> <dbl> <dbl> <dbl>
1      1  2.24  3     3     2.6   3.03  2.75 NA    NA    NA    NA   
2      2  3.1   3.53  3.82  3.6   3.83  4.25  4.42  5.06 NA    NA   
3      3  3.85  4.6   4.53  4.71  4.61  4.82  5.1   5.35  5.7   6.74
4      4  6.6   6.65  7.17  6.82  6.95  7.32  7.76  7.41  7.41  9.45
5      5  8.51  8.79  9.28 10.2   9.95 10.1  10.3   9.02 10.7  13.5 
6      6 11.6  11.6  12.0  12.4  12.4  12    12.4  11.1  12.6  15.0 
7      7 13.6  13.4  13.0  13.3  13.1  13.1  13.4  13.3  13.4  15.9 
8      8  9.46  9.23  8.68  8.55  8.61  8.61  9.01  8.95  9.03 10.0 

# A tibble: 80 × 3
   series epsiode rating
    <dbl> <chr>    <dbl>
 1      1 e1        2.24
 2      1 e2        3   
 3      1 e3        3   
 4      1 e4        2.6 
 5      1 e5        3.03
 6      1 e6        2.75
 7      1 e7       NA   
 8      1 e8       NA   
 9      1 e9       NA   
10      1 e10      NA   
# ℹ 70 more rows
…
wider \(\rightarrow\) longer ratings

longer_ratings <- bakeoff_ratings %>%
  pivot_longer( 
    cols = e1:e10, 
    names_to = "episode", 
    values_to = "rating" 
  )
longer_ratings

# A tibble: 80 × 3
   series episode rating
    <dbl> <chr>    <dbl>
 1      1 e1        2.24
 2      1 e2        3   
 3      1 e3        3   
 4      1 e4        2.6 
 5      1 e5        3.03
 6      1 e6        2.75
 7      1 e7       NA   
 8      1 e8       NA   
 9      1 e9       NA   
10      1 e10      NA   
# ℹ 70 more rows

parse_number()

ratings <- longer_ratings %>%
  mutate(
    episode = parse_number(episode) 
  )
ratings

# A tibble: 80 × 3
   series episode rating
    <dbl>   <dbl>  <dbl>
 1      1       1   2.24
 2      1       2   3   
 3      1       3   3   
 4      1       4   2.6 
 5      1       5   3.03
 6      1       6   2.75
 7      1       7  NA   
 8      1       8  NA   
 9      1       9  NA   
10      1      10  NA   
# ℹ 70 more rows
…
Cleaning episode

ratings2 <- messy_ratings2 %>%
  select(series, contains("7day")) %>%
  pivot_longer(contains("7day"), 
               names_to = "episode", 
               values_to = "rating")
ratings2

# A tibble: 80 × 3
   series episode  rating
    <dbl> <chr>     <dbl>
 1      1 e1_7day    2.24
 2      1 e2_7day    3   
 3      1 e3_7day    3   
 4      1 e4_7day    2.6 
 5      1 e5_7day    3.03
 6      1 e6_7day    2.75
 7      1 e7_7day   NA   
 8      1 e8_7day   NA   
 9      1 e9_7day   NA   
10      1 e10_7day  NA   
# ℹ 70 more rows
…
Cleaning episode

ratings2 %>%
  separate( 
    col = episode, 
    into = c("episode", "period") 
  )

# A tibble: 80 × 4
   series episode period rating
    <dbl> <chr>   <chr>   <dbl>
 1      1 e1      7day     2.24
 2      1 e2      7day     3   
 3      1 e3      7day     3   
 4      1 e4      7day     2.6 
 5      1 e5      7day     3.03
 6      1 e6      7day     2.75
 7      1 e7      7day    NA   
 8      1 e8      7day    NA   
 9      1 e9      7day    NA   
10      1 e10     7day    NA   
# ℹ 70 more rows
…
