Stat 220 – Data Wrangling: Combining Data
…
Whoever does the typing will share the completed .Rmd so you all have it

Warm up

Open the 10-combining.rmd activity in RStudio

Take a look at the first 3 pairs of data (Example 1 through Example 3) together and talk through (conceptually! in words! no R code!) how you think they should be combined

Example 1: Star Wars Characters

Dataset 1:

starwars_characters

# A tibble: 87 × 6
   name               height  mass homeworld species first_film
   <chr>               <int> <dbl> <chr>     <chr>   <chr>     
 1 Luke Skywalker        172    77 Tatooine  Human   A New Hope
 2 C-3PO                 167    75 Tatooine  Droid   A New Hope
 3 R2-D2                  96    32 Naboo     Droid   A New Hope
 4 Darth Vader           202   136 Tatooine  Human   A New Hope
 5 Leia Organa           150    49 Alderaan  Human   A New Hope
 6 Owen Lars             178   120 Tatooine  Human   A New Hope
 7 Beru Whitesun Lars    165    75 Tatooine  Human   A New Hope
 8 R5-D4                  97    32 Tatooine  Droid   A New Hope
 9 Biggs Darklighter     183    84 Tatooine  Human   A New Hope
10 Obi-Wan Kenobi        182    77 Stewjon   Human   A New Hope
# ℹ 77 more rows
…
head(cast_details,5)

# A tibble: 5 × 6
  castaway_id full_name         date_of_birth gender occupation personality_type
  <chr>       <chr>             <date>        <chr>  <chr>      <chr>           
1 US0014      Rudy Boesch       1928-01-20    Male   Retired N… ISTJ            
2 US0002      B.B. Andersen     1936-01-18    Male   Real Esta… ESTJ            
3 US0001      Sonja Christopher 1937-01-28    Female Musician   ENFP            
4 US0075      Jake Billingsley  1941-08-21    Male   Land Brok… ISFJ            
5 US0151      Jim Lynch         1942-01-07    Male   Retired F… ISTJ            

Desired output

# A tibble: 870 × 12
   castaway_id castaway season_name      season place jury  finalist full_name  
   <chr>       <chr>    <chr>             <dbl> <dbl> <lgl> <lgl>    <chr>      
 1 US0001      Sonja    Survivor: Borneo      1    16 FALSE FALSE    Sonja Chri…
 2 US0002      B.B.     Survivor: Borneo      1    15 FALSE FALSE    B.B. Ander…
 3 US0003      Stacey   Survivor: Borneo      1    14 FALSE FALSE    Stacey Sti…
 4 US0004      Ramona   Survivor: Borneo      1    13 FALSE FALSE    Ramona Gray
 5 US0005      Dirk     Survivor: Borneo      1    12 FALSE FALSE    Dirk Been  
 6 US0006      Joel     Survivor: Borneo      1    11 FALSE FALSE    Joel Klug  
 7 US0007      Gretchen Survivor: Borneo      1    10 FALSE FALSE    Gretchen C…
 8 US0008      Greg     Survivor: Borneo      1     9 TRUE  FALSE    Greg Buis  
 9 US0009      Jenna    Survivor: Borneo      1     8 TRUE  FALSE    Jenna Lewis
10 US0010      Gervase  Survivor: Borneo      1     7 TRUE  FALSE    Gervase Pe…
# ℹ 860 more rows
# ℹ 4 more variables: date_of_birth <date>, gender <chr>, occupation <chr>,
#   personality_type <chr>

left_join()

us_castaway_results %>%
  left_join(cast_details, by = "castaway_id") %>%
  select(-season_name)

# A tibble: 870 × 11
   castaway_id castaway season place jury  finalist full_name      date_of_birth
   <chr>       <chr>     <dbl> <dbl> <lgl> <lgl>    <chr>          <date>       
 1 US0001      Sonja         1    16 FALSE FALSE    Sonja Christo… 1937-01-28   
 2 US0002      B.B.          1    15 FALSE FALSE    B.B. Andersen  1936-01-18   
 3 US0003      Stacey        1    14 FALSE FALSE    Stacey Stillm… 1972-08-11   
 4 US0004      Ramona        1    13 FALSE FALSE    Ramona Gray    1971-01-20   
 5 US0005      Dirk          1    12 FALSE FALSE    Dirk Been      1976-06-15   
 6 US0006      Joel          1    11 FALSE FALSE    Joel Klug      1972-04-13   
 7 US0007      Gretchen      1    10 FALSE FALSE    Gretchen Cordy 1962-02-07   
 8 US0008      Greg          1     9 TRUE  FALSE    Greg Buis      1975-12-31   
 9 US0009      Jenna         1     8 TRUE  FALSE    Jenna Lewis    1977-07-16   
10 US0010      Gervase       1     7 TRUE  FALSE    Gervase Peter… 1969-11-02   
# ℹ 860 more rows
# ℹ 3 more variables: gender <chr>, occupation <chr>, personality_type <chr>
…
In particular, it includes:

baker: each baker that competed on that episode

signature: the name of the dessert they made for the signature challenge

technical: the place the baker earned in the technical challenge

showstopper: the name of the dessert they made for the showstopper challenge

result: whether the baker was “Safe” or “Eliminated”

episodes

# A tibble: 1,007 × 7
   series episode baker     signature               technical showstopper result
    <dbl>   <dbl> <chr>     <chr>                       <dbl> <chr>       <chr> 
 1      1       1 Annetha   Light Jamaican Black C…         2 Red, White… Safe  
 2      1       1 David     Chocolate Orange Cake           3 Black Fore… Safe  
 3      1       1 Edd       Caramel Cinnamon and B…         1 <NA>        Safe  
 4      1       1 Jasminder Fresh Mango and Passio…        NA <NA>        Safe  
 5      1       1 Jonathan  Carrot Cake with Lime …         9 Three Tier… Safe  
 6      1       1 Lea       Cranberry and Pistachi…        10 Raspberrie… Elimi…
 7      1       1 Louise    Carrot and Orange Cake         NA Never Fail… Safe  
 8      1       1 Mark      Sticky Marmalade Tea L…        NA Heart-shap… Elimi…
 9      1       1 Miranda   Triple Layered Brownie…         8 Three Tier… Safe  
10      1       1 Ruth      Lemon Drizzle Cakewith…        NA Classic Ch… Safe  
# ℹ 997 more rows
…
